A couple of case_when() tricks | Alan Yeung
…
library(tidyverse)

iris_df <- as_tibble(iris) %>% 
  mutate(flag_Petal.Length = as.integer(Petal.Length > 1.5),
         flag_Petal.Width = as.integer(Petal.Width > 0.2))

iris_df %>% 
  mutate(across(c(Petal.Length, Petal.Width),
                ~case_when(
                  get(glue::glue("flag_{cur_column()}")) == 1 ~ NA_real_,
                  TRUE ~ .x
                ))) %>% 
    select(contains("Petal"))

## # A tibble: 150 × 4
##    Petal.Length Petal.Width flag_Petal.Length flag_Petal.Width
##           <dbl>       <dbl>             <int>            <int>
##  1          1.4         0.2                 0                0
##  2          1.4         0.2                 0                0
##  3          1.3         0.2                 0                0
##  4          1.5         0.2                 0                0
##  5          1.4         0.2                 0                0
##  6         NA          NA                   1                1
##  7          1.4        NA                   0                1
##  8          1.5         0.2                 0                0
##  9          1.4         0.2                 0                0
## 10          1.5         0.1                 0                0
## # ℹ 140 more rows
…
