…
Being able to see the names related to different groupings is useful if you want to download data from all resources in a particular group. I'll give an example of doing this later but first I want to mimic some of the things I done in previous blog posts but using ckanr.


## Connect to CKAN with dplyr and download from one resource
Let's demonstrate downloading from one resource using the fairly small [Patients Referred](https://www.opendata.nhs.scot/dataset/allied-health-professionals-musculoskeletal-waiting-times/resource/3988df43-3516-4190-93da-16189db7329a) dataset within [Allied Health Professionals - Musculoskeletal Waiting Times](https://www.opendata.nhs.scot/dataset/allied-health-professionals-musculoskeletal-waiting-times). We start by using `src_ckan()` to create a connection to CKAN (similar to how you would do so for other non-CKAN databases). From there, you can download data in a similar way to when using [dbplyr](https://dbplyr.tidyverse.org) but using a CKAN resource ID instead of a database table name.

```{r ckanr-one-resource, eval=FALSE}
ckan <- src_ckan("https://www.opendata.nhs.scot")
res_id <- "3988df43-3516-4190-93da-16189db7329a"

dplyr::tbl(src = ckan$con, from = res_id) %>% 
  as_tibble()

# A tibble: 1,115 x 9
#    `_id` HBT2014 ReferralsPerOne~ `_full_text` Specialty NumberOfReferra~ NumberOfReferra~
#    <chr> <chr>              <dbl> <chr>        <chr>                <dbl> <chr>           
#  1 1     S08000~           2890.  '2015q3':9 ~ All AHP ~             8904 d               
#  2 2     S08000~            411.  '1267':5 '2~ Chiropod~             1267 ""              
#  3 3     S08000~             94.4 '2015q3':3 ~ Occupati~              291 ""              
#  4 4     S08000~            178.  '178.17':5 ~ Orthotics              549 ""              
#  5 5     S08000~           2206.  '2015q3':2 ~ Physioth~             6797 ""              
#  6 6     S08000~           1530.  '1472':7 '1~ All AHP ~             1472 d               
#  7 7     S08000~            165.  '159':1 '16~ Orthotics              159 ""              
#  8 8     S08000~           1365.  '1313':2 '1~ Physioth~             1313 ""              
#  9 9     S08000~           2562.  '2015q3':7 ~ All AHP ~             3212 d               
# 10 10    S08000~            197.  '197.02':1 ~ Chiropod~              247 ""              
# # ... with 1,105 more rows, and 2 more variables: Quarter <chr>,
# #   ReferralsPerOneHundredThousandPopulationQF <chr>
```
…
Now let's try combining this with some basic dplyr functions.

```{r ckanr-dplyr, eval=FALSE}
dplyr::tbl(src = ckan$con, from = res_id) %>% 
  select(Quarter, HBT2014) %>% 
  filter(HBT2014 == "S08000015") %>% 
  as_tibble()

# A tibble: 89 x 2
#    Quarter HBT2014  
#    <chr>   <chr>    
#  1 2015Q3  S08000015
#  2 2015Q3  S08000015
#  3 2015Q3  S08000015
#  4 2015Q3  S08000015
#  5 2015Q3  S08000015
#  6 2015Q4  S08000015
#  7 2015Q4  S08000015
#  8 2015Q4  S08000015
#  9 2015Q4  S08000015
# 10 2015Q4  S08000015
# # ... with 79 more rows
# Warning messages:
# 1: Translator is missing window variants of the following aggregate functions:
# * all
# * any
# * cor
# * cov
# * paste
# * sd
…
