…
gs_df2 <- gs_df %>%
    filter(name %in% c("Rafael Nadal", "Novak Djokovic", "Roger Federer")) %>%
    mutate(grand_slam = str_replace_all(grand_slam, "_", " "),
           grand_slam = str_to_title(grand_slam),
           grand_slam = str_replace_all(grand_slam, "Us", "US")) %>%
    select(-gender) %>%
    bind_rows(gs_update)

gs_df2
# A tibble: 61 x 5
#     year grand_slam      name          rolling_win_count tournament_date
#    <dbl> <chr>           <chr>                     <dbl> <date>         
#  1  2003 Wimbledon       Roger Federer                 1 2003-07-14     
#  2  2004 Australian Open Roger Federer                 2 2004-01-10     
#  3  2004 Wimbledon       Roger Federer                 3 2004-07-14     
#  4  2004 US Open         Roger Federer                 4 2004-09-09     
#  5  2005 French Open     Rafael Nadal                  1 2005-06-09     
#  6  2005 Wimbledon       Roger Federer                 5 2005-07-14     
#  7  2005 US Open         Roger Federer                 6 2005-09-09     
#  8  2006 Australian Open Roger Federer                 7 2006-01-10     
#  9  2006 French Open     Rafael Nadal                  2 2006-06-09     
# 10  2006 Wimbledon       Roger Federer                 8 2006-07-14     
# ... with 51 more rows
…
# Set the rank for each time point
gs_df6 <- gs_df5 %>% 
    arrange(year, grand_slam, rolling_win_count2, desc(name)) %>% 
    group_by(yr_slam) %>% 
    mutate(current_rank = row_number()) %>% 
    ungroup()

select(gs_df6, yr_slam, name, rolling_win_count2, current_rank)
# A tibble: 225 x 4
#    yr_slam              name           rolling_win_count2 current_rank
#    <chr>                <fct>                       <dbl>        <int>
#  1 2003 Wimbledon       Novak Djokovic                  0            1
#  2 2003 Wimbledon       Rafael Nadal                    0            2
#  3 2003 Wimbledon       Roger Federer                   1            3
#  4 2003 US Open         Novak Djokovic                  0            1
#  5 2003 US Open         Rafael Nadal                    0            2
#  6 2003 US Open         Roger Federer                   1            3
#  7 2004 Australian Open Novak Djokovic                  0            1
#  8 2004 Australian Open Rafael Nadal                    0            2
#  9 2004 Australian Open Roger Federer                   2            3
# 10 2004 French Open     Novak Djokovic                  0            1
# ... with 215 more rows
…
library(ggimage)

img_rafa <- "https://raw.githubusercontent.com/alan-y/img/master/rafa2.png"
img_novak <- "https://raw.githubusercontent.com/alan-y/img/master/novak2.png"
img_roger <- "https://raw.githubusercontent.com/alan-y/img/master/roger2.png"

gs_df7 <- gs_df6 %>% 
    mutate(img_player = case_when(
        name == "Rafael Nadal" ~ img_rafa,
        name == "Novak Djokovic" ~ img_novak,
        name == "Roger Federer" ~ img_roger,
    ))

select(gs_df7, name, img_player)
# A tibble: 225 x 2
#    name           img_player                                                    
#    <fct>          <chr>                                                         
#  1 Novak Djokovic https://raw.githubusercontent.com/alan-y/img/master/novak2.png
#  2 Rafael Nadal   https://raw.githubusercontent.com/alan-y/img/master/rafa2.png 
#  3 Roger Federer  https://raw.githubusercontent.com/alan-y/img/master/roger2.png
#  4 Novak Djokovic https://raw.githubusercontent.com/alan-y/img/master/novak2.png
#  5 Rafael Nadal   https://raw.githubusercontent.com/alan-y/img/master/rafa2.png 
#  6 Roger Federer  https://raw.githubusercontent.com/alan-y/img/master/roger2.png
#  7 Novak Djokovic https://raw.githubusercontent.com/alan-y/img/master/novak2.png
#  8 Rafael Nadal   https://raw.githubusercontent.com/alan-y/img/master/rafa2.png 
#  9 Roger Federer  https://raw.githubusercontent.com/alan-y/img/master/roger2.png
# 10 Novak Djokovic https://raw.githubusercontent.com/alan-y/img/master/novak2.png
# ... with 215 more rows
…
