…
As there are many sales per day, I’ll start with aggregating up to get daily sales for each branch, which we can do with time_by().

daily_df <- sales_df %>% 
    group_by(branch) %>% 
    time_by(date_time, "day", .add = TRUE, time_floor = TRUE) %>% 
    summarise(daily_total = sum(total), .groups = "drop")

daily_df

## # A tibble: 263 × 3
##    branch date_time           daily_total
##    <chr>  <dttm>                    <dbl>
##  1 A      2019-01-01 00:00:00       2371.
##  2 A      2019-01-02 00:00:00        307.
##  3 A      2019-01-03 00:00:00        937.
##  4 A      2019-01-04 00:00:00        483.
##  5 A      2019-01-05 00:00:00       2025.
##  6 A      2019-01-06 00:00:00       1310.
##  7 A      2019-01-07 00:00:00       1106.
##  8 A      2019-01-08 00:00:00        683.
##  9 A      2019-01-09 00:00:00        202.
## 10 A      2019-01-10 00:00:00        731.
## # ℹ 253 more rows
…
<img src="{{< blogdown/postref >}}index.en_files/figure-html/time-complete-1.svg" width="576" />

To finish off, let’s take a quick look at weekly sales by customer type, just to show another variation with time_by().

weekly_df <- sales_df %>% 
    group_by(branch, customer_type) %>% 
    time_by(date_time, "week", .add = TRUE, time_floor = TRUE) %>% 
    summarise(weekly_total = sum(total), .groups = "drop")

weekly_df

## # A tibble: 78 × 4
##    branch customer_type date_time           weekly_total
##    <chr>  <chr>         <dttm>                     <dbl>
##  1 A      Member        2018-12-31 00:00:00        3642.
##  2 A      Member        2019-01-07 00:00:00        4142.
##  3 A      Member        2019-01-14 00:00:00        6202.
##  4 A      Member        2019-01-21 00:00:00        4427.
##  5 A      Member        2019-01-28 00:00:00        5771.
##  6 A      Member        2019-02-04 00:00:00        2677.
##  7 A      Member        2019-02-11 00:00:00        2361.
##  8 A      Member        2019-02-18 00:00:00        4232.
##  9 A      Member        2019-02-25 00:00:00        3359.
## 10 A      Member        2019-03-04 00:00:00        5791.
## # ℹ 68 more rows
…
